histerese_osciloscopio.csv

X,CH1,CH2,Start,Increment,
Sequence,Volt,Volt,-6.000000e-02,1.000000e-04
0,-2.96e-01,-5.81e-01,
1,-3.60e-01,-6.25e-01,
2,-3.12e-01,-6.07e-01,
3,-3.76e-01,-6.51e-01,
4,-3.44e-01,-6.34e-01,
5,-4.08e-01,-6.86e-01,
6,-3.68e-01,-6.60e-01,
7,-4.56e-01,-7.13e-01,
8,-4.00e-01,-6.86e-01,
9,-4.88e-01,-7.39e-01,
10,-4.48e-01,-7.13e-01,
11,-5.28e-01,-7.48e-01,
12,-4.88e-01,-7.30e-01,
13,-5.60e-01,-7.66e-01,
14,-5.20e-01,-7.66e-01,
15,-5.92e-01,-7.39e-01,
16,-5.60e-01,-7.39e-01,
17,-6.16e-01,-7.74e-01,
18,-5.76e-01,-7.74e-01,
19,-6.24e-01,-7.48e-01,
20,-6.24e-01,-7.74e-01,
21,-5.68e-01,-7.39e-01,
22,-6.08e-01,-7.39e-01,
23,-5.36e-01,-7.66e-01,
24,-5.76e-01,-7.66e-01,
25,-5.04e-01,-7.22e-01,
26,-5.36e-01,-7.48e-01,
27,-4.56e-01,-7.04e-01,
28,-4.80e-01,-7.22e-01,
29,-3.20e-01,-6.86e-01,
30,-4.16e-01,-6.95e-01,
31,-2.88e-01,-6.60e-01,
32,-3.36e-01,-6.69e-01,
33,-2.32e-01,-6.16e-01,
34,-2.64e-01,-6.42e-01,
35,-1.60e-01,-5.90e-01,
36,-1.92e-01,-6.16e-01,
37,-8.00e-02,-5.54e-01,
38,-1.20e-01,-5.72e-01,
39,-2.40e-02,-5.10e-01,
40,-5.60e-02,-5.28e-01,
41,3.20e-02,-4.66e-01,
42,-8.00e-03,-4.93e-01,
43,6.40e-02,-4.22e-01,
44,4.00e-02,-4.49e-01,
45,9.60e-02,-3.70e-01,
46,5.60e-02,-3.96e-01,
47,1.52e-01,-3.34e-01,
48,8.80e-02,-3.52e-01,
49,1.44e-01,-2.73e-01,
50,1.04e-01,-2.99e-01,
51,1.68e-01,-2.20e-01,
52,1.20e-01,-2.46e-01,
53,2.08e-01,-1.67e-01,
54,1.36e-01,-1.85e-01,
55,1.92e-01,-1.14e-01,
56,1.52e-01,-1.32e-01,
57,2.00e-01,-5.28e-02,
58,1.52e-01,-7.92e-02,
59,2.32e-01,0.00e+00,
60,1.68e-01,-1.76e-02,
61,2.24e-01,5.28e-02,
62,1.76e-01,3.52e-02,
63,2.24e-01,1.23e-01,
64,1.76e-01,9.68e-02,
65,2.32e-01,1.76e-01,
66,1.92e-01,1.58e-01,
67,2.56e-01,2.29e-01,
68,1.92e-01,2.20e-01,
69,2.72e-01,2.90e-01,
70,2.08e-01,2.73e-01,
71,2.64e-01,3.43e-01,
72,2.24e-01,3.17e-01,
73,2.72e-01,3.96e-01,
74,2.24e-01,3.78e-01,
75,2.80e-01,4.40e-01,
76,2.24e-01,4.31e-01,
77,2.88e-01,4.84e-01,
78,2.48e-01,4.75e-01,
79,3.04e-01,5.37e-01,
80,2.64e-01,5.10e-01,
81,3.20e-01,5.72e-01,
82,2.72e-01,5.37e-01,
83,3.28e-01,6.07e-01,
84,2.96e-01,5.81e-01,
85,3.76e-01,6.34e-01,
86,3.12e-01,6.25e-01,
87,3.84e-01,6.60e-01,
88,3.36e-01,6.51e-01,
89,4.40e-01,6.86e-01,
90,3.84e-01,6.78e-01,
91,4.48e-01,7.13e-01,
92,4.16e-01,7.04e-01,
93,4.96e-01,7.39e-01,
94,4.48e-01,7.22e-01,
95,5.36e-01,7.57e-01,
96,4.96e-01,7.30e-01,
97,5.68e-01,7.66e-01,
98,5.28e-01,7.48e-01,
99,6.00e-01,7.66e-01,
100,5.44e-01,7.48e-01,
101,6.40e-01,7.74e-01,
102,5.76e-01,7.48e-01,
103,6.32e-01,7.74e-01,
104,6.24e-01,7.66e-01,
105,5.52e-01,7.48e-01,
106,6.08e-01,7.66e-01,
107,5.28e-01,7.30e-01,
108,5.68e-01,7.57e-01,
109,4.96e-01,7.22e-01,
110,5.20e-01,7.39e-01,
111,4.16e-01,6.95e-01,
112,4.56e-01,7.13e-01,
113,3.60e-01,6.78e-01,
114,3.92e-01,6.86e-01,
115,2.88e-01,6.51e-01,
116,3.12e-01,6.69e-01,
117,2.00e-01,6.07e-01,
118,2.64e-01,6.34e-01,
119,1.36e-01,5.72e-01,
120,1.68e-01,5.98e-01,
121,5.60e-02,5.37e-01,
122,1.12e-01,5.63e-01,
123,0.00e+00,5.02e-01,
124,3.20e-02,5.19e-01,
125,-5.60e-02,4.40e-01,
126,-1.60e-02,4.75e-01,
127,-8.80e-02,4.05e-01,
128,-5.60e-02,4.40e-01,
129,-1.20e-01,3.61e-01,
130,-1.52e-01,3.87e-01,
131,-2.40e-02,3.08e-01,
132,-7.20e-02,3.26e-01,
133,-1.60e-01,2.55e-01,
134,-1.20e-01,2.73e-01,
135,-1.76e-01,2.11e-01,
136,-1.84e-01,2.20e-01,
137,-1.36e-01,1.50e-01,
138,-1.44e-01,1.76e-01,
139,-2.08e-01,9.68e-02,
140,-2.16e-01,1.06e-01,
141,-1.44e-01,3.52e-02,
142,-1.60e-01,5.28e-02,
143,-2.24e-01,-2.64e-02,
144,-1.68e-01,0.00e+00,
145,-2.32e-01,-7.92e-02,
146,-2.40e-01,-5.28e-02,
147,-1.76e-01,-1.32e-01,
148,-1.60e-01,-1.23e-01,
149,-2.48e-01,-2.02e-01,
150,-1.84e-01,-1.76e-01,
151,-2.64e-01,-2.55e-01,
152,-2.16e-01,-2.38e-01,
153,-2.72e-01,-3.08e-01,
154,-1.84e-01,-2.90e-01,
155,-2.88e-01,-3.70e-01,
156,-2.00e-01,-3.43e-01,
157,-2.96e-01,-4.05e-01,
158,-2.32e-01,-3.87e-01,
159,-2.96e-01,-4.66e-01,
160,-2.48e-01,-4.40e-01,
161,-3.04e-01,-5.02e-01,
162,-2.56e-01,-4.84e-01,
163,-3.20e-01,-5.46e-01,
164,-2.72e-01,-5.19e-01,
165,-3.28e-01,-5.90e-01,
166,-2.72e-01,-5.63e-01,
167,-3.52e-01,-6.16e-01,
168,-3.04e-01,-5.90e-01,
169,-3.76e-01,-6.51e-01,
170,-3.28e-01,-6.25e-01,
171,-4.00e-01,-6.86e-01,
172,-3.60e-01,-6.60e-01,
173,-4.32e-01,-7.13e-01,
174,-4.00e-01,-6.78e-01,
175,-4.72e-01,-7.22e-01,
176,-4.32e-01,-7.04e-01,
177,-5.12e-01,-7.39e-01,
178,-4.72e-01,-7.30e-01,
179,-5.44e-01,-7.48e-01,
180,-5.12e-01,-7.30e-01,
181,-5.92e-01,-7.66e-01,
182,-5.44e-01,-7.39e-01,
183,-6.00e-01,-7.74e-01,
184,-5.28e-01,-7.74e-01,
185,-6.40e-01,-7.48e-01,
186,-6.24e-01,-7.74e-01,
187,-5.60e-01,-7.48e-01,
188,-6.24e-01,-7.74e-01,
189,-5.52e-01,-7.39e-01,
190,-6.00e-01,-7.66e-01,
191,-4.88e-01,-7.30e-01,
192,-5.52e-01,-7.48e-01,
193,-4.72e-01,-7.13e-01,
194,-5.04e-01,-7.39e-01,
195,-4.00e-01,-6.86e-01,
196,-4.32e-01,-7.13e-01,
197,-3.36e-01,-6.60e-01,
198,-3.68e-01,-6.86e-01,
199,-2.56e-01,-6.34e-01,
200,-2.88e-01,-6.51e-01,
201,-1.44e-01,-6.07e-01,
202,-2.16e-01,-6.25e-01,
203,-1.04e-01,-5.63e-01,
204,-1.44e-01,-5.90e-01,
205,-8.00e-03,-5.19e-01,
206,-6.40e-02,-5.46e-01,
207,4.80e-02,-4.84e-01,
208,-2.40e-02,-5.02e-01,
209,5.60e-02,-4.40e-01,
210,2.40e-02,-4.66e-01,
211,1.28e-01,-3.87e-01,
212,5.60e-02,-4.05e-01,
213,1.12e-01,-3.43e-01,
214,8.00e-02,-3.70e-01,
215,1.44e-01,-2.90e-01,
216,9.60e-02,-3.08e-01,
217,2.00e-01,-2.38e-01,
218,1.12e-01,-2.73e-01,
219,1.76e-01,-1.85e-01,
220,1.28e-01,-2.02e-01,
221,1.92e-01,-1.41e-01,
222,1.44e-01,-1.50e-01,
223,2.00e-01,-7.92e-02,
224,1.52e-01,-8.80e-02,
225,2.08e-01,-1.76e-02,
226,1.68e-01,-3.52e-02,
227,2.40e-01,4.40e-02,
228,1.68e-01,1.76e-02,
229,2.64e-01,9.68e-02,
230,2.72e-01,7.92e-02,
231,1.76e-01,1.50e-01,
232,2.32e-01,1.41e-01,
233,1.84e-01,2.11e-01,
234,1.92e-01,1.94e-01,
235,2.56e-01,2.73e-01,
236,2.00e-01,2.55e-01,
237,2.64e-01,3.26e-01,
238,2.00e-01,3.08e-01,
239,2.72e-01,3.70e-01,
240,2.16e-01,3.61e-01,
241,2.80e-01,4.22e-01,
242,2.32e-01,4.05e-01,
243,2.88e-01,4.66e-01,
244,2.48e-01,4.58e-01,
245,2.96e-01,5.19e-01,
246,2.56e-01,5.02e-01,
247,3.20e-01,5.46e-01,
248,2.72e-01,5.37e-01,
249,3.36e-01,5.90e-01,
250,2.88e-01,5.81e-01,
251,3.44e-01,6.25e-01,
252,3.04e-01,6.07e-01,
253,3.92e-01,6.60e-01,
254,3.28e-01,6.34e-01,
255,4.00e-01,6.86e-01,
256,3.68e-01,6.60e-01,
257,4.48e-01,7.04e-01,
258,4.08e-01,6.86e-01,
259,4.88e-01,7.30e-01,
260,4.40e-01,7.39e-01,
261,5.36e-01,7.04e-01,
262,4.80e-01,7.30e-01,
263,5.60e-01,7.57e-01,
264,5.20e-01,7.39e-01,
265,6.00e-01,7.66e-01,
266,5.52e-01,7.48e-01,
267,6.72e-01,7.83e-01,
268,6.72e-01,7.66e-01,
269,5.60e-01,7.48e-01,
270,5.60e-01,7.48e-01,
271,6.72e-01,7.83e-01,
272,6.16e-01,7.66e-01,
273,5.36e-01,7.30e-01,
274,5.84e-01,7.57e-01,
275,5.04e-01,7.22e-01,
276,5.44e-01,7.39e-01,
277,4.48e-01,7.04e-01,
278,5.04e-01,7.22e-01,
279,3.92e-01,6.78e-01,
280,4.24e-01,6.95e-01,
281,3.12e-01,6.60e-01,
282,3.36e-01,6.69e-01,
283,2.32e-01,6.25e-01,
284,2.64e-01,6.42e-01,
285,1.60e-01,5.98e-01,
286,1.84e-01,6.07e-01,
287,7.20e-02,5.54e-01,
288,1.20e-01,5.63e-01,
289,2.40e-02,5.10e-01,
290,5.60e-02,5.28e-01,
291,-4.80e-02,4.75e-01,
292,1.60e-02,4.93e-01,
293,-7.20e-02,4.31e-01,
294,-4.00e-02,4.49e-01,
295,-1.04e-01,3.78e-01,
296,-6.40e-02,3.96e-01,
297,-1.44e-01,3.26e-01,
298,-9.60e-02,3.43e-01,
299,-1.68e-01,2.73e-01,
300,-1.20e-01,2.99e-01,
301,-1.76e-01,2.20e-01,
302,-1.36e-01,2.46e-01,
303,-1.84e-01,1.67e-01,
304,-1.28e-01,1.94e-01,
305,-2.00e-01,1.14e-01,
306,-1.52e-01,1.32e-01,
307,-2.08e-01,6.16e-02,
308,-2.16e-01,7.92e-02,
309,-1.28e-01,-8.80e-03,
310,-2.32e-01,8.80e-03,
311,-1.28e-01,-5.28e-02,
312,-1.84e-01,-4.40e-02,
313,-2.40e-01,-1.23e-01,
314,-1.92e-01,-9.68e-02,
315,-2.48e-01,-1.76e-01,
316,-2.00e-01,-1.50e-01,
317,-2.48e-01,-2.29e-01,
318,-2.08e-01,-2.20e-01,
319,-2.64e-01,-2.82e-01,
320,-2.16e-01,-2.64e-01,
321,-2.72e-01,-3.43e-01,
322,-2.32e-01,-3.17e-01,
323,-2.88e-01,-3.96e-01,
324,-2.88e-01,-3.70e-01,
325,-2.00e-01,-4.49e-01,
326,-2.48e-01,-4.22e-01,
327,-3.04e-01,-4.93e-01,
328,-2.56e-01,-4.66e-01,
329,-3.12e-01,-5.28e-01,
330,-2.64e-01,-5.10e-01,
331,-3.20e-01,-5.72e-01,
332,-2.64e-01,-5.54e-01,
333,-3.44e-01,-6.07e-01,
334,-2.96e-01,-5.90e-01,
335,-3.60e-01,-6.42e-01,
336,-3.28e-01,-6.16e-01,
337,-3.92e-01,-6.69e-01,
338,-3.52e-01,-6.42e-01,
339,-4.24e-01,-6.95e-01,
340,-3.60e-01,-6.78e-01,
341,-4.56e-01,-7.22e-01,
342,-4.16e-01,-7.04e-01,
343,-5.04e-01,-7.39e-01,
344,-4.64e-01,-7.13e-01,
345,-5.36e-01,-7.57e-01,
346,-4.96e-01,-7.30e-01,
347,-5.76e-01,-7.66e-01,
348,-5.28e-01,-7.39e-01,
349,-6.08e-01,-7.74e-01,
350,-5.68e-01,-7.57e-01,
351,-6.24e-01,-7.74e-01,
352,-6.24e-01,-7.74e-01,
353,-5.68e-01,-7.48e-01,
354,-6.32e-01,-7.74e-01,
355,-4.96e-01,-7.39e-01,
356,-5.28e-01,-7.66e-01,
357,-6.08e-01,-7.30e-01,
358,-5.76e-01,-7.48e-01,
359,-4.48e-01,-7.13e-01,
360,-5.20e-01,-7.39e-01,
361,-4.24e-01,-6.95e-01,
362,-4.64e-01,-7.22e-01,
363,-3.44e-01,-6.78e-01,
364,-3.92e-01,-6.95e-01,
365,-2.80e-01,-6.42e-01,
366,-3.12e-01,-6.69e-01,
367,-1.92e-01,-6.07e-01,
368,-2.32e-01,-6.25e-01,
369,-1.28e-01,-5.81e-01,
370,-1.60e-01,-5.98e-01,
371,-5.60e-02,-5.37e-01,
372,-9.60e-02,-5.63e-01,
373,-8.00e-03,-4.93e-01,
374,-4.00e-02,-5.19e-01,
375,4.00e-02,-4.58e-01,
376,8.00e-03,-4.75e-01,
377,8.80e-02,-4.14e-01,
378,4.00e-02,-4.22e-01,
379,1.20e-01,-3.61e-01,
380,7.20e-02,-3.78e-01,
381,1.84e-01,-3.08e-01,
382,8.80e-02,-3.26e-01,
383,1.76e-01,-2.64e-01,
384,1.04e-01,-2.82e-01,
385,2.00e-01,-2.11e-01,
386,1.36e-01,-2.29e-01,
387,2.08e-01,-1.50e-01,
388,1.36e-01,-1.76e-01,
389,2.00e-01,-9.68e-02,
390,1.52e-01,-1.14e-01,
391,2.32e-01,-4.40e-02,
392,1.60e-01,-5.28e-02,
393,2.08e-01,8.80e-03,
394,1.68e-01,0.00e+00,
395,2.48e-01,7.92e-02,
396,2.32e-01,6.16e-02,
397,1.68e-01,1.32e-01,
398,1.84e-01,1.14e-01,
399,2.40e-01,1.94e-01,
400,2.40e-01,1.85e-01,
401,1.92e-01,2.55e-01,
402,2.00e-01,2.38e-01,
403,2.64e-01,2.99e-01,
404,2.08e-01,2.90e-01,
405,2.96e-01,3.52e-01,
406,2.88e-01,3.43e-01,
407,2.16e-01,4.14e-01,
408,2.24e-01,3.87e-01,
409,3.12e-01,4.49e-01,
410,2.48e-01,4.40e-01,
411,2.96e-01,4.93e-01,
412,2.56e-01,4.84e-01,
413,3.20e-01,5.46e-01,
414,2.72e-01,5.28e-01,
415,3.20e-01,5.72e-01,
416,2.80e-01,5.63e-01,
417,3.36e-01,6.16e-01,
418,3.04e-01,5.98e-01,
419,3.60e-01,6.42e-01,
420,3.20e-01,6.25e-01,
421,3.92e-01,6.69e-01,
422,3.52e-01,6.51e-01,
423,4.24e-01,6.95e-01,
424,3.92e-01,6.78e-01,
425,4.64e-01,7.22e-01,
426,4.24e-01,7.04e-01,
427,5.04e-01,7.39e-01,
428,4.72e-01,7.22e-01,
429,5.36e-01,7.57e-01,
430,4.96e-01,7.30e-01,
431,5.76e-01,7.66e-01,
432,5.36e-01,7.48e-01,
433,6.08e-01,7.66e-01,
434,5.60e-01,7.66e-01,
435,6.80e-01,7.48e-01,
436,5.68e-01,7.66e-01,
437,6.48e-01,7.48e-01,
438,5.52e-01,7.48e-01,
439,6.40e-01,7.66e-01,
440,6.00e-01,7.57e-01,
441,5.20e-01,7.30e-01,
442,5.60e-01,7.39e-01,
443,4.80e-01,7.22e-01,
444,5.20e-01,7.30e-01,
445,4.00e-01,6.86e-01,
446,4.56e-01,7.13e-01,
447,3.36e-01,6.60e-01,
448,3.92e-01,6.86e-01,
449,2.64e-01,6.34e-01,
450,2.88e-01,6.60e-01,
451,1.92e-01,6.07e-01,
452,2.08e-01,6.16e-01,
453,9.60e-02,5.63e-01,
454,1.44e-01,5.81e-01,
455,4.80e-02,5.28e-01,
456,6.40e-02,5.46e-01,
457,-2.40e-02,4.84e-01,
458,3.20e-02,4.93e-01,
459,-5.60e-02,4.40e-01,
460,-2.40e-02,4.58e-01,
461,-9.60e-02,3.87e-01,
462,-5.60e-02,4.14e-01,
463,-1.28e-01,3.43e-01,
464,-8.00e-02,3.70e-01,
465,-1.44e-01,2.90e-01,
466,-1.12e-01,3.17e-01,
467,-1.68e-01,2.46e-01,
468,-1.28e-01,2.64e-01,
469,-1.84e-01,1.94e-01,
470,-1.44e-01,2.02e-01,
471,-1.92e-01,1.32e-01,
472,-1.52e-01,1.50e-01,
473,-2.08e-01,7.04e-02,
474,-1.36e-01,9.68e-02,
475,-2.16e-01,1.76e-02,
476,-1.68e-01,4.40e-02,
477,-2.24e-01,-3.52e-02,
478,-2.32e-01,-1.76e-02,
479,-1.76e-01,-8.80e-02,
480,-1.44e-01,-7.92e-02,
481,-2.48e-01,-1.58e-01,
482,-1.92e-01,-1.41e-01,
483,-2.56e-01,-2.11e-01,
484,-2.64e-01,-1.94e-01,
485,-1.84e-01,-2.73e-01,
486,-2.72e-01,-2.46e-01,
487,-1.92e-01,-3.26e-01,
488,-2.80e-01,-2.99e-01,
489,-1.84e-01,-3.78e-01,
490,-2.32e-01,-3.61e-01,
491,-2.88e-01,-4.22e-01,
492,-2.48e-01,-4.14e-01,
493,-2.96e-01,-4.75e-01,
494,-2.56e-01,-4.58e-01,
495,-3.04e-01,-5.19e-01,
496,-2.64e-01,-4.93e-01,
497,-3.20e-01,-5.63e-01,
498,-3.44e-01,-5.37e-01,
499,-2.48e-01,-5.98e-01,
500,-2.80e-01,-5.81e-01,
501,-3.52e-01,-6.25e-01,
502,-3.12e-01,-6.07e-01,
503,-3.76e-01,-6.51e-01,
504,-4.08e-01,-6.42e-01,
505,-2.96e-01,-6.86e-01,
506,-3.76e-01,-6.60e-01,
507,-4.56e-01,-7.13e-01,
508,-4.00e-01,-6.86e-01,
509,-4.80e-01,-7.39e-01,
510,-4.48e-01,-7.13e-01,
511,-5.28e-01,-7.48e-01,
512,-4.88e-01,-7.30e-01,
513,-5.52e-01,-7.66e-01,
514,-5.20e-01,-7.39e-01,
515,-6.00e-01,-7.74e-01,
516,-5.36e-01,-7.48e-01,
517,-6.16e-01,-7.74e-01,
518,-5.44e-01,-7.57e-01,
519,-6.24e-01,-7.74e-01,
520,-5.60e-01,-7.74e-01,
521,-6.24e-01,-7.39e-01,
522,-6.08e-01,-7.74e-01,
523,-5.28e-01,-7.30e-01,
524,-5.76e-01,-7.66e-01,
525,-5.04e-01,-7.30e-01,
526,-5.36e-01,-7.39e-01,
527,-4.48e-01,-7.04e-01,
528,-4.80e-01,-7.22e-01,
529,-3.76e-01,-6.78e-01,
530,-4.08e-01,-7.04e-01,
531,-2.64e-01,-6.51e-01,
532,-3.44e-01,-6.69e-01,
533,-2.32e-01,-6.16e-01,
534,-2.56e-01,-6.42e-01,
535,-1.52e-01,-5.90e-01,
536,-1.76e-01,-6.16e-01,
537,-8.00e-02,-5.54e-01,
538,-1.12e-01,-5.72e-01,
539,-2.40e-02,-5.10e-01,
540,-4.80e-02,-5.28e-01,
541,3.20e-02,-4.66e-01,
542,-8.00e-03,-4.93e-01,
543,7.20e-02,-4.22e-01,
544,4.00e-02,-4.49e-01,
545,8.80e-02,-3.70e-01,
546,5.60e-02,-3.96e-01,
547,1.60e-01,-3.34e-01,
548,8.80e-02,-3.43e-01,
549,1.52e-01,-2.73e-01,
550,1.12e-01,-2.99e-01,
551,1.76e-01,-2.20e-01,
552,1.28e-01,-2.46e-01,
553,1.92e-01,-1.67e-01,
554,1.36e-01,-1.85e-01,
555,2.24e-01,-1.14e-01,
556,1.44e-01,-1.32e-01,
557,2.08e-01,-5.28e-02,
558,1.60e-01,-7.92e-02,
559,2.24e-01,0.00e+00,
560,1.68e-01,-2.64e-02,
561,2.16e-01,5.28e-02,
562,1.76e-01,4.40e-02,
563,2.24e-01,1.06e-01,
564,1.76e-01,9.68e-02,
565,2.32e-01,1.76e-01,
566,2.80e-01,1.58e-01,
567,1.84e-01,2.29e-01,
568,1.92e-01,2.11e-01,
569,2.56e-01,2.90e-01,
570,2.08e-01,2.64e-01,
571,2.64e-01,3.43e-01,
572,2.16e-01,3.17e-01,
573,2.72e-01,3.96e-01,
574,2.24e-01,3.78e-01,
575,2.80e-01,4.40e-01,
576,2.40e-01,4.31e-01,
577,3.04e-01,4.84e-01,
578,2.56e-01,4.75e-01,
579,3.04e-01,5.19e-01,
580,2.48e-01,5.10e-01,
581,3.52e-01,5.63e-01,
582,2.72e-01,5.54e-01,
583,3.92e-01,6.07e-01,
584,2.96e-01,5.81e-01,
585,3.92e-01,6.34e-01,
586,3.12e-01,6.25e-01,
587,4.24e-01,6.60e-01,
588,3.28e-01,6.51e-01,
589,4.16e-01,6.86e-01,
590,3.76e-01,6.78e-01,
591,5.04e-01,7.13e-01,
592,4.16e-01,6.95e-01,
593,4.96e-01,7.39e-01,
594,4.40e-01,7.22e-01,
595,5.36e-01,7.48e-01,
596,4.88e-01,7.30e-01,
597,5.68e-01,7.57e-01,
598,5.28e-01,7.39e-01,
599,6.00e-01,7.66e-01,
600,5.52e-01,7.48e-01,
601,6.24e-01,7.66e-01,
602,6.80e-01,7.66e-01,
603,5.60e-01,7.48e-01,
604,6.24e-01,7.66e-01,
605,5.52e-01,7.48e-01,
606,6.00e-01,7.66e-01,
607,5.28e-01,7.30e-01,
608,5.68e-01,7.57e-01,
609,4.88e-01,7.22e-01,
610,5.20e-01,7.39e-01,
611,4.24e-01,7.04e-01,
612,4.88e-01,7.13e-01,
613,3.68e-01,6.69e-01,
614,3.92e-01,6.86e-01,
615,2.80e-01,6.51e-01,
616,3.28e-01,6.60e-01,
617,2.08e-01,6.07e-01,
618,2.40e-01,6.34e-01,
619,1.28e-01,5.81e-01,
620,1.68e-01,5.98e-01,
621,5.60e-02,5.37e-01,
622,1.04e-01,5.63e-01,
623,-8.00e-03,5.02e-01,
624,4.80e-02,5.19e-01,
625,-4.80e-02,4.58e-01,
626,-8.00e-03,4.75e-01,
627,-8.00e-02,4.14e-01,
628,-3.20e-02,4.22e-01,
629,-1.20e-01,3.61e-01,
630,-7.20e-02,3.87e-01,
631,-1.36e-01,3.08e-01,
632,-1.04e-01,3.26e-01,
633,-1.60e-01,2.64e-01,
634,-1.20e-01,2.73e-01,
635,-1.76e-01,2.11e-01,
636,-1.84e-01,2.29e-01,
637,-1.36e-01,1.50e-01,
638,-1.36e-01,1.67e-01,
639,-2.00e-01,9.68e-02,
640,-2.08e-01,1.06e-01,
641,-1.60e-01,3.52e-02,
642,-2.16e-01,5.28e-02,
643,-1.60e-01,-2.64e-02,
644,-1.12e-01,0.00e+00,
645,-2.48e-01,-7.92e-02,
646,-2.48e-01,-5.28e-02,
647,-1.52e-01,-1.32e-01,
648,-1.76e-01,-1.14e-01,
649,-2.48e-01,-1.85e-01,
650,-1.92e-01,-1.76e-01,
651,-2.56e-01,-2.55e-01,
652,-2.16e-01,-2.38e-01,
653,-2.64e-01,-3.08e-01,
654,-2.24e-01,-2.82e-01,
655,-2.72e-01,-3.61e-01,
656,-2.32e-01,-3.43e-01,
657,-2.80e-01,-4.05e-01,
658,-2.96e-01,-3.87e-01,
659,-2.16e-01,-4.58e-01,
660,-2.24e-01,-4.40e-01,
661,-3.04e-01,-5.02e-01,
662,-2.64e-01,-4.84e-01,
663,-3.12e-01,-5.46e-01,
664,-2.72e-01,-5.19e-01,
665,-3.28e-01,-5.90e-01,
666,-2.96e-01,-5.63e-01,
667,-3.52e-01,-6.25e-01,
668,-3.04e-01,-5.90e-01,
669,-3.68e-01,-6.51e-01,
670,-3.36e-01,-6.34e-01,
671,-4.00e-01,-6.86e-01,
672,-3.60e-01,-6.60e-01,
673,-4.32e-01,-7.04e-01,
674,-3.68e-01,-6.86e-01,
675,-4.72e-01,-7.22e-01,
676,-4.32e-01,-7.04e-01,
677,-5.04e-01,-7.39e-01,
678,-4.64e-01,-7.22e-01,
679,-5.44e-01,-7.66e-01,
680,-5.04e-01,-7.30e-01,
681,-5.84e-01,-7.66e-01,
682,-5.44e-01,-7.39e-01,
683,-6.08e-01,-7.74e-01,
684,-5.68e-01,-7.57e-01,
685,-6.24e-01,-7.74e-01,
686,-6.24e-01,-7.74e-01,
687,-5.68e-01,-7.39e-01,
688,-6.16e-01,-7.74e-01,
689,-5.60e-01,-7.39e-01,
690,-5.92e-01,-7.66e-01,
691,-5.20e-01,-7.30e-01,
692,-5.52e-01,-7.48e-01,
693,-4.48e-01,-7.13e-01,
694,-5.12e-01,-7.30e-01,
695,-4.00e-01,-6.86e-01,
696,-4.32e-01,-7.13e-01,
697,-3.36e-01,-6.60e-01,
698,-3.68e-01,-6.86e-01,
699,-2.48e-01,-6.34e-01,
700,-2.80e-01,-6.51e-01,
701,-1.68e-01,-6.07e-01,
702,-2.08e-01,-6.25e-01,
703,-1.04e-01,-5.63e-01,
704,-1.44e-01,-5.90e-01,
705,-3.20e-02,-5.19e-01,
706,-8.00e-02,-5.46e-01,
707,8.00e-03,-4.84e-01,
708,-2.40e-02,-5.02e-01,
709,5.60e-02,-4.40e-01,
710,2.40e-02,-4.66e-01,
711,1.20e-01,-3.96e-01,
712,4.80e-02,-4.14e-01,
713,1.28e-01,-3.43e-01,
714,8.00e-02,-3.70e-01,
715,1.52e-01,-2.90e-01,
716,9.60e-02,-3.08e-01,
717,1.60e-01,-2.46e-01,
718,1.12e-01,-2.55e-01,
719,1.76e-01,-1.85e-01,
720,1.36e-01,-2.02e-01,
721,2.08e-01,-1.41e-01,
722,2.00e-01,-1.50e-01,
723,1.36e-01,-7.04e-02,
724,1.44e-01,-8.80e-02,
725,2.64e-01,-1.76e-02,
726,1.68e-01,-3.52e-02,
727,2.16e-01,4.40e-02,
728,1.68e-01,1.76e-02,
729,2.24e-01,9.68e-02,
730,1.68e-01,8.80e-02,
731,2.88e-01,1.50e-01,
732,1.84e-01,1.41e-01,
733,2.72e-01,2.11e-01,
734,2.56e-01,1.94e-01,
735,2.00e-01,2.73e-01,
736,2.56e-01,2.55e-01,
737,2.08e-01,3.26e-01,
738,2.16e-01,3.08e-01,
739,2.80e-01,3.70e-01,
740,2.16e-01,3.61e-01,
741,3.28e-01,4.22e-01,
742,2.32e-01,4.05e-01,
743,3.04e-01,4.66e-01,
744,2.40e-01,4.58e-01,
745,2.96e-01,5.19e-01,
746,2.56e-01,5.02e-01,
747,3.44e-01,5.46e-01,
748,2.72e-01,5.37e-01,
749,3.28e-01,5.90e-01,
750,2.88e-01,5.72e-01,
751,3.60e-01,6.25e-01,
752,3.04e-01,6.07e-01,
753,3.76e-01,6.60e-01,
754,3.36e-01,6.34e-01,
755,4.08e-01,6.86e-01,
756,3.68e-01,6.60e-01,
757,4.48e-01,7.13e-01,
758,4.00e-01,6.86e-01,
759,4.72e-01,7.30e-01,
760,4.32e-01,7.04e-01,
761,5.20e-01,7.39e-01,
762,4.72e-01,7.22e-01,
763,5.84e-01,7.57e-01,
764,5.20e-01,7.39e-01,
765,6.08e-01,7.66e-01,
766,5.52e-01,7.66e-01,
767,6.40e-01,7.48e-01,
768,5.60e-01,7.48e-01,
769,6.24e-01,7.74e-01,
770,6.24e-01,7.66e-01,
771,5.68e-01,7.48e-01,
772,6.16e-01,7.66e-01,
773,5.44e-01,7.30e-01,
774,5.76e-01,7.57e-01,
775,4.96e-01,7.22e-01,
776,5.52e-01,7.39e-01,
777,4.48e-01,7.04e-01,
778,4.96e-01,7.30e-01,
779,3.92e-01,6.78e-01,
780,4.16e-01,6.95e-01,
781,3.12e-01,6.51e-01,
782,3.44e-01,6.69e-01,
783,2.24e-01,6.25e-01,
784,2.64e-01,6.42e-01,
785,1.52e-01,5.98e-01,
786,1.84e-01,6.07e-01,
787,7.20e-02,5.54e-01,
788,1.28e-01,5.72e-01,
789,1.60e-02,5.10e-01,
790,4.80e-02,5.37e-01,
791,-4.00e-02,4.75e-01,
792,0.00e+00,4.93e-01,
793,-8.00e-02,4.22e-01,
794,-4.00e-02,4.40e-01,
795,-1.20e-01,3.78e-01,
796,-4.00e-02,3.96e-01,
797,-1.36e-01,3.26e-01,
798,-1.04e-01,3.43e-01,
799,-1.60e-01,2.82e-01,
800,-1.68e-01,2.99e-01,
801,-1.20e-01,2.20e-01,
802,-1.36e-01,2.46e-01,
803,-1.84e-01,1.67e-01,
804,-1.44e-01,1.94e-01,
805,-2.00e-01,1.14e-01,
806,-2.08e-01,1.41e-01,
807,-1.52e-01,6.16e-02,
808,-1.12e-01,7.04e-02,
809,-2.24e-01,0.00e+00,
810,-2.32e-01,8.80e-03,
811,-1.04e-01,-5.28e-02,
812,-1.60e-01,-4.40e-02,
813,-2.40e-01,-1.23e-01,
814,-1.84e-01,-9.68e-02,
815,-2.48e-01,-1.76e-01,
816,-2.56e-01,-1.58e-01,
817,-1.92e-01,-2.29e-01,
818,-2.64e-01,-2.20e-01,
819,-2.08e-01,-2.82e-01,
820,-2.72e-01,-2.73e-01,
821,-2.16e-01,-3.43e-01,
822,-2.32e-01,-3.26e-01,
823,-2.80e-01,-3.96e-01,
824,-2.40e-01,-3.70e-01,
825,-2.88e-01,-4.49e-01,
826,-2.48e-01,-4.22e-01,
827,-2.96e-01,-4.93e-01,
828,-2.24e-01,-4.66e-01,
829,-3.12e-01,-5.28e-01,
830,-3.20e-01,-5.10e-01,
831,-2.40e-01,-5.72e-01,
832,-2.72e-01,-5.54e-01,
833,-3.52e-01,-5.98e-01,
